Flights Data Transformation Example
…
Starting with a broad dataset of flight records, we refine our data to concentrate on flights departing from Raleigh-Durham International Airport (RDU) to North Carolina and California in November 2023. This process includes filtering, selecting, and renaming key variables to enhance clarity and utility. These steps are executed through a concise series of dplyr functions linked in a pipeline, which transforms the data to the dataset that supports our subsequent analysis in the ggplot closeread story.

We start by loading the tidyverse package, which contains the ggplot2 and dplyr packages we need. @cr-dplyr-1

library(tidyverse)

We then load the data frame flights. This dataset is now ready for analysis or manipulation in R. This data frame contains data with 59,416 rows and 110 columns. @cr-dplyr-2

library(tidyverse)
flights <- read_csv(here::here("closereads", "data", "rdu-flights-23.csv"))

flights # display the dataframe

# A tibble: 59,416 × 110
    year quarter month day_of_month day_of_week flight_date reporting_airline
   <dbl>   <dbl> <dbl>        <dbl>       <dbl> <date>      <chr>            
 1  2023       1     1            9           1 2023-01-09  9E               
 2  2023       1     1           10           2 2023-01-10  9E               
 3  2023       1     1           11           3 2023-01-11  9E               
 4  2023       1     1           12           4 2023-01-12  9E               
 5  2023       1     1           13           5 2023-01-13  9E               
 6  2023       1     1           14           6 2023-01-14  9E               
 7  2023       1     1           15           7 2023-01-15  9E               
 8  2023       1     1           16           1 2023-01-16  9E               
 9  2023       1     1           17           2 2023-01-17  9E               
10  2023       1     1           18           3 2023-01-18  9E               
# ℹ 59,406 more rows
# ℹ 103 more variables: dot_id_reporting_airline <dbl>,
#   iata_code_reporting_airline <chr>, tail_number <chr>,
#   flight_number_reporting_airline <dbl>, origin_airport_id <dbl>,
#   origin_airport_seq_id <dbl>, origin_city_market_id <dbl>, origin <chr>,
#   origin_city_name <chr>, origin_state <chr>, origin_state_fips <dbl>,
#   origin_state_name <chr>, origin_wac <dbl>, dest_airport_id <dbl>, …

We use the filter() function to retain only those rows in the data frame where Origin is “RDU”, DestState is either “NC” or “CA”, and with month equals to 11, as we are only focusing the flights departing from RDU, with destinations in North Carolina or in California, in November 2023. Looking at the tibble, we notice that the number of rows is reduced to 368. We can see that the year column now only contains 2023, and the month column only contains 11. The filtering is also reflected in the flight_date column. @cr-dplyr-3

library(tidyverse)

flights_rdu <- flights |>
  filter(
    origin == "RDU",
    dest_state %in% c("NC", "CA"), # NC and CA
    month == 11
  )

flights_rdu # display the dataframe

# A tibble: 368 × 110
    year quarter month day_of_month day_of_week flight_date reporting_airline
   <dbl>   <dbl> <dbl>        <dbl>       <dbl> <date>      <chr>            
 1  2023       4    11            1           3 2023-11-01  AA               
 2  2023       4    11            2           4 2023-11-02  AA               
 3  2023       4    11            3           5 2023-11-03  AA               
 4  2023       4    11            4           6 2023-11-04  AA               
 5  2023       4    11           25           6 2023-11-25  AA               
 6  2023       4    11           26           7 2023-11-26  AA               
 7  2023       4    11            1           3 2023-11-01  AA               
 8  2023       4    11            2           4 2023-11-02  AA               
 9  2023       4    11            3           5 2023-11-03  AA               
10  2023       4    11            4           6 2023-11-04  AA               
# ℹ 358 more rows
# ℹ 103 more variables: dot_id_reporting_airline <dbl>,
#   iata_code_reporting_airline <chr>, tail_number <chr>,
#   flight_number_reporting_airline <dbl>, origin_airport_id <dbl>,
#   origin_airport_seq_id <dbl>, origin_city_market_id <dbl>, origin <chr>,
#   origin_city_name <chr>, origin_state <chr>, origin_state_fips <dbl>,
#   origin_state_name <chr>, origin_wac <dbl>, dest_airport_id <dbl>, …
…
flights_rdu # display the dataframe

# A tibble: 368 × 6
   flight_date dest  reporting_airline dep_delay arr_delay dest_state
   <date>      <chr> <chr>                 <dbl>     <dbl> <chr>     
 1 2023-11-01  LAX   AA                       -2         1 CA        
 2 2023-11-02  LAX   AA                       -7       -22 CA        
 3 2023-11-03  LAX   AA                       -4       -29 CA        
 4 2023-11-04  LAX   AA                       -8       -27 CA        
 5 2023-11-25  CLT   AA                       -4         3 NC        
 6 2023-11-26  CLT   AA                       18        23 NC        
 7 2023-11-01  CLT   AA                       -7        -8 NC        
 8 2023-11-02  CLT   AA                       -7        -9 NC        
 9 2023-11-03  CLT   AA                       47        29 NC        
10 2023-11-04  CLT   AA                       19         5 NC        
# ℹ 358 more rows
…
flights_rdu # display the dataframe

# A tibble: 368 × 6
   flight_date dest  reporting_airline dep_delay arr_delay destination_state
   <date>      <chr> <chr>                 <dbl>     <dbl> <chr>            
 1 2023-11-01  LAX   AA                       -2         1 CA               
 2 2023-11-02  LAX   AA                       -7       -22 CA               
 3 2023-11-03  LAX   AA                       -4       -29 CA               
 4 2023-11-04  LAX   AA                       -8       -27 CA               
 5 2023-11-25  CLT   AA                       -4         3 NC               
 6 2023-11-26  CLT   AA                       18        23 NC               
 7 2023-11-01  CLT   AA                       -7        -8 NC               
 8 2023-11-02  CLT   AA                       -7        -9 NC               
 9 2023-11-03  CLT   AA                       47        29 NC               
10 2023-11-04  CLT   AA                       19         5 NC               
# ℹ 358 more rows
…
flights_rdu

# A tibble: 368 × 6
   flight_date dest  reporting_airline dep_delay arr_delay destination_state
   <date>      <chr> <chr>                 <dbl>     <dbl> <chr>            
 1 2023-11-01  LAX   AA                       -2         1 CA               
 2 2023-11-02  LAX   AA                       -7       -22 CA               
 3 2023-11-03  LAX   AA                       -4       -29 CA               
 4 2023-11-04  LAX   AA                       -8       -27 CA               
 5 2023-11-25  CLT   AA                       -4         3 NC               
 6 2023-11-26  CLT   AA                       18        23 NC               
 7 2023-11-01  CLT   AA                       -7        -8 NC               
 8 2023-11-02  CLT   AA                       -7        -9 NC               
 9 2023-11-03  CLT   AA                       47        29 NC               
10 2023-11-04  CLT   AA                       19         5 NC               
# ℹ 358 more rows
…
flights_rdu

# A tibble: 368 × 6
   flight_date dest  reporting_airline destination_state dep_delay arr_delay
   <date>      <chr> <chr>             <chr>                 <dbl>     <dbl>
 1 2023-11-01  LAX   AA                CA                       -2         1
 2 2023-11-02  LAX   AA                CA                       -7       -22
 3 2023-11-03  LAX   AA                CA                       -4       -29
 4 2023-11-04  LAX   AA                CA                       -8       -27
 5 2023-11-25  CLT   AA                NC                       -4         3
 6 2023-11-26  CLT   AA                NC                       18        23
 7 2023-11-01  CLT   AA                NC                       -7        -8
 8 2023-11-02  CLT   AA                NC                       -7        -9
 9 2023-11-03  CLT   AA                NC                       47        29
10 2023-11-04  CLT   AA                NC                       19         5
# ℹ 358 more rows
…
flights_rdu

# A tibble: 368 × 6
   flight_date dest  reporting_airline destination_state dep_delay arr_delay
   <date>      <chr> <chr>             <chr>                 <dbl>     <dbl>
 1 2023-11-09  LAX   AA                CA                      209       215
 2 2023-11-19  CLT   AA                NC                      174       166
 3 2023-11-21  CLT   AA                NC                      166       159
 4 2023-11-22  CLT   AA                NC                      150       144
 5 2023-11-29  CLT   AA                NC                      137       146
 6 2023-11-29  CLT   AA                NC                      102        98
 7 2023-11-25  CLT   AA                NC                       78        72
 8 2023-11-30  LAX   AA                CA                       72        62
 9 2023-11-22  CLT   AA                NC                       71        57
10 2023-11-07  CLT   AA                NC                       71        60
# ℹ 358 more rows
…
flights_rdu

# A tibble: 368 × 6
   flight_date dest  reporting_airline destination_state dep_delay arr_delay
   <date>      <chr> <chr>             <chr>                 <dbl>     <dbl>
 1 2023-11-01  CLT   AA                NC                       58        50
 2 2023-11-01  CLT   AA                NC                       20         8
 3 2023-11-01  LAX   DL                CA                       16        -6
 4 2023-11-01  CLT   AA                NC                        0        -3
 5 2023-11-01  CLT   AA                NC                       -1        -2
 6 2023-11-01  CLT   AA                NC                       -1       -16
 7 2023-11-01  LAX   AA                CA                       -2         1
 8 2023-11-01  SFO   UA                CA                       -2       -21
 9 2023-11-01  CLT   AA                NC                       -4       -10
10 2023-11-01  CLT   AA                NC                       -5        -3
# ℹ 358 more rows
…
We use a left_join function from the dplyr package to merge the flights_rdu data frame with the airline_codes lookup table. It includes all records from the ‘left’ table (the flights_rdu table being passed down the pipeline), and the matched records from the ‘right’ table (airline_codes). If there is no match, the result is still a row in the output, but with NULL values in the columns of the ‘right’ table. @cr-join-airlinecode-1

flights_rdu_joined_airline <- flights_rdu |>
  left_join(
    airline_codes, 
    by = c("reporting_airline" = "code")
  )

flights_rdu_joined_airline

# A tibble: 368 × 7
   flight_date dest  reporting_airline destination_state dep_delay arr_delay
   <date>      <chr> <chr>             <chr>                 <dbl>     <dbl>
 1 2023-11-01  CLT   AA                NC                       58        50
 2 2023-11-01  CLT   AA                NC                       20         8
 3 2023-11-01  LAX   DL                CA                       16        -6
 4 2023-11-01  CLT   AA                NC                        0        -3
 5 2023-11-01  CLT   AA                NC                       -1        -2
 6 2023-11-01  CLT   AA                NC                       -1       -16
 7 2023-11-01  LAX   AA                CA                       -2         1
 8 2023-11-01  SFO   UA                CA                       -2       -21
 9 2023-11-01  CLT   AA                NC                       -4       -10
10 2023-11-01  CLT   AA                NC                       -5        -3
# ℹ 358 more rows
# ℹ 1 more variable: description <chr>

This operation is based on matching the reporting_airline column from the flights_rdu dataframe with the code column in the airline_codes table. This type of join ensures that all records from the flights_rdu data frame are preserved, and corresponding airline names are added where available. @cr-join-airlinecode-2

flights_rdu_joined_airline <- flights_rdu |>
  left_join(
    airline_codes, 
    by = c("reporting_airline" = "code")
  )

flights_rdu_joined_airline

# A tibble: 368 × 7
   flight_date dest  reporting_airline destination_state dep_delay arr_delay
   <date>      <chr> <chr>             <chr>                 <dbl>     <dbl>
 1 2023-11-01  CLT   AA                NC                       58        50
 2 2023-11-01  CLT   AA                NC                       20         8
 3 2023-11-01  LAX   DL                CA                       16        -6
 4 2023-11-01  CLT   AA                NC                        0        -3
 5 2023-11-01  CLT   AA                NC                       -1        -2
 6 2023-11-01  CLT   AA                NC                       -1       -16
 7 2023-11-01  LAX   AA                CA                       -2         1
 8 2023-11-01  SFO   UA                CA                       -2       -21
 9 2023-11-01  CLT   AA                NC                       -4       -10
10 2023-11-01  CLT   AA                NC                       -5        -3
# ℹ 358 more rows
# ℹ 1 more variable: description <chr>

After merging, we use the rename function to change the column name from description to airline_name, enhancing the readability of the dataframe. @cr-join-airlinecode-3

flights_rdu_joined_airline <- flights_rdu |>
  left_join(
    airline_codes, 
    by = c("reporting_airline" = "code")
  ) |>
  rename(
    airline_name = description
  )

flights_rdu_joined_airline

# A tibble: 368 × 7
   flight_date dest  reporting_airline destination_state dep_delay arr_delay
   <date>      <chr> <chr>             <chr>                 <dbl>     <dbl>
 1 2023-11-01  CLT   AA                NC                       58        50
 2 2023-11-01  CLT   AA                NC                       20         8
 3 2023-11-01  LAX   DL                CA                       16        -6
 4 2023-11-01  CLT   AA                NC                        0        -3
 5 2023-11-01  CLT   AA                NC                       -1        -2
 6 2023-11-01  CLT   AA                NC                       -1       -16
 7 2023-11-01  LAX   AA                CA                       -2         1
 8 2023-11-01  SFO   UA                CA                       -2       -21
 9 2023-11-01  CLT   AA                NC                       -4       -10
10 2023-11-01  CLT   AA                NC                       -5        -3
# ℹ 358 more rows
# ℹ 1 more variable: airline_name <chr>

Enriching dataframe by joining another table

For this part of the analysis, we are merging weather data with our flight dataset to enrich it with environmental conditions that could impact flight schedules and performance. The weather_df data frame contains various weather metrics like temperature, dew point, humidity, wind speed, pressure, and precipitation, recorded on specific dates of November, 2023.

We use a right_join to combine flights_rdu with weather_data. The join is based on matching flight_date in the flights data with time in the weather data. This method ensures all date is retained and supplemented with corresponding weather conditions and flight data where available.@cr-join-weather-1

flights_rdu_joined_weather <- flights_rdu |>
  right_join(
    weather_data, 
    by = c("flight_date" = "time")
  ) 
flights_rdu_joined_weather

# A tibble: 368 × 12
   flight_date dest  reporting_airline destination_state dep_delay arr_delay
   <date>      <chr> <chr>             <chr>                 <dbl>     <dbl>
 1 2023-11-01  CLT   AA                NC                       58        50
 2 2023-11-01  CLT   AA                NC                       20         8
 3 2023-11-01  LAX   DL                CA                       16        -6
 4 2023-11-01  CLT   AA                NC                        0        -3
 5 2023-11-01  CLT   AA                NC                       -1        -2
 6 2023-11-01  CLT   AA                NC                       -1       -16
 7 2023-11-01  LAX   AA                CA                       -2         1
 8 2023-11-01  SFO   UA                CA                       -2       -21
 9 2023-11-01  CLT   AA                NC                       -4       -10
10 2023-11-01  CLT   AA                NC                       -5        -3
# ℹ 358 more rows
# ℹ 6 more variables: temperature <dbl>, dew_point <dbl>, humidity <dbl>,
#   wind_speed <dbl>, pressure <dbl>, precipitation <dbl>
