Group by
…
We begin with a simple example: counting the number of flights on each day of the week. To do this, we use the group_by() function to group the data by the day_of_week variable. It’s important to note that when group_by() is used on its own, the output looks identical to the original data frame, with no visible change occurs. That’s because group_by() doesn’t modify the data directly. This grouping only becomes meaningful when combined with a function like summarize(), which uses that metadata to compute statistics for each group.

The group_by() function is followed by summarize() to count the number of records within each group. In this example, n() is used to count the number of rows in each group, giving us a frequency count of flights by day of the week.

In our next example, we group data by month and cancellation code to see trends over the year in terms of why flights are cancelled, showing problematic months or operational challenges during certain periods. By applying group_by(month, cancellation_code), we create grouped combinations of each month and cancellation reason.

This enables us to count how many cancellations occurred for each reason in each month using summarize() and n(). After summarization, we use .groups = "drop" to remove the grouping structure, so the output is returned as a regular, ungrouped dataframe.

Next, we analyze how flight performance varies across different times of the day, grouped by airline. We begin by using mutate() along with case_when() to create a new categorical variable, time_of_day, derived from crs_dep_time (the scheduled departure time). Each flight is categorized into one of four time blocks.

After defining the time periods, we apply group_by() with both reporting_airline and our newly derived variable time_of_day.

We can then use summarize() to calculate two key metrics: average_delay: The mean departure delay within each group; on_time_rate: The proportion of flights that departed on time or early. We also use .groups = "drop" to return the result as an ungrouped data frame.

# A tibble: 368 × 110
    year quarter month day_of_month day_of_week flight_date reporting_airline
   <dbl>   <dbl> <dbl>        <dbl>       <dbl> <date>      <chr>            
 1  2023       4    11            1           3 2023-11-01  AA               
 2  2023       4    11            2           4 2023-11-02  AA               
 3  2023       4    11            3           5 2023-11-03  AA               
 4  2023       4    11            4           6 2023-11-04  AA               
 5  2023       4    11           25           6 2023-11-25  AA               
 6  2023       4    11           26           7 2023-11-26  AA               
 7  2023       4    11            1           3 2023-11-01  AA               
 8  2023       4    11            2           4 2023-11-02  AA               
 9  2023       4    11            3           5 2023-11-03  AA               
10  2023       4    11            4           6 2023-11-04  AA               
# ℹ 358 more rows
# ℹ 103 more variables: dot_id_reporting_airline <dbl>,
#   iata_code_reporting_airline <chr>, tail_number <chr>,
#   flight_number_reporting_airline <dbl>, origin_airport_id <dbl>,
#   origin_airport_seq_id <dbl>, origin_city_market_id <dbl>, origin <chr>,
#   origin_city_name <chr>, origin_state <chr>, origin_state_fips <dbl>,
#   origin_state_name <chr>, origin_wac <dbl>, dest_airport_id <dbl>, …

# A tibble: 368 × 110
# Groups:   day_of_week [7]
    year quarter month day_of_month day_of_week flight_date reporting_airline
   <dbl>   <dbl> <dbl>        <dbl>       <dbl> <date>      <chr>            
 1  2023       4    11            1           3 2023-11-01  AA               
 2  2023       4    11            2           4 2023-11-02  AA               
 3  2023       4    11            3           5 2023-11-03  AA               
 4  2023       4    11            4           6 2023-11-04  AA               
 5  2023       4    11           25           6 2023-11-25  AA               
 6  2023       4    11           26           7 2023-11-26  AA               
 7  2023       4    11            1           3 2023-11-01  AA               
 8  2023       4    11            2           4 2023-11-02  AA               
 9  2023       4    11            3           5 2023-11-03  AA               
10  2023       4    11            4           6 2023-11-04  AA               
# ℹ 358 more rows
# ℹ 103 more variables: dot_id_reporting_airline <dbl>,
#   iata_code_reporting_airline <chr>, tail_number <chr>,
#   flight_number_reporting_airline <dbl>, origin_airport_id <dbl>,
#   origin_airport_seq_id <dbl>, origin_city_market_id <dbl>, origin <chr>,
#   origin_city_name <chr>, origin_state <chr>, origin_state_fips <dbl>,
#   origin_state_name <chr>, origin_wac <dbl>, dest_airport_id <dbl>, …

# A tibble: 7 × 2
  day_of_week flight_count
        <dbl>        <int>
1           1         8853
2           2         8505
3           3         8561
4           4         8829
5           5         8864
6           6         7167
7           7         8637

# A tibble: 59,416 × 110
# Groups:   month, cancellation_code [46]
    year quarter month day_of_month day_of_week flight_date reporting_airline
   <dbl>   <dbl> <dbl>        <dbl>       <dbl> <date>      <chr>            
 1  2023       1     1            9           1 2023-01-09  9E               
 2  2023       1     1           10           2 2023-01-10  9E               
 3  2023       1     1           11           3 2023-01-11  9E               
 4  2023       1     1           12           4 2023-01-12  9E               
 5  2023       1     1           13           5 2023-01-13  9E               
 6  2023       1     1           14           6 2023-01-14  9E               
 7  2023       1     1           15           7 2023-01-15  9E               
 8  2023       1     1           16           1 2023-01-16  9E               
 9  2023       1     1           17           2 2023-01-17  9E               
10  2023       1     1           18           3 2023-01-18  9E               
# ℹ 59,406 more rows
# ℹ 103 more variables: dot_id_reporting_airline <dbl>,
#   iata_code_reporting_airline <chr>, tail_number <chr>,
#   flight_number_reporting_airline <dbl>, origin_airport_id <dbl>,
#   origin_airport_seq_id <dbl>, origin_city_market_id <dbl>, origin <chr>,
#   origin_city_name <chr>, origin_state <chr>, origin_state_fips <dbl>,
#   origin_state_name <chr>, origin_wac <dbl>, dest_airport_id <dbl>, …

# A tibble: 46 × 3
   month cancellation_code cancellation
   <dbl> <chr>                    <int>
 1     1 A                           10
 2     1 B                           28
 3     1 C                           19
 4     1 D                            2
 5     1 <NA>                      4247
 6     2 A                           15
 7     2 B                           30
 8     2 C                            1
 9     2 <NA>                      4016
10     3 A                           18
# ℹ 36 more rows

# A tibble: 59,416 × 111
    year quarter month day_of_month day_of_week flight_date reporting_airline
   <dbl>   <dbl> <dbl>        <dbl>       <dbl> <date>      <chr>            
 1  2023       1     1            9           1 2023-01-09  9E               
 2  2023       1     1           10           2 2023-01-10  9E               
 3  2023       1     1           11           3 2023-01-11  9E               
 4  2023       1     1           12           4 2023-01-12  9E               
 5  2023       1     1           13           5 2023-01-13  9E               
 6  2023       1     1           14           6 2023-01-14  9E               
 7  2023       1     1           15           7 2023-01-15  9E               
 8  2023       1     1           16           1 2023-01-16  9E               
 9  2023       1     1           17           2 2023-01-17  9E               
10  2023       1     1           18           3 2023-01-18  9E               
# ℹ 59,406 more rows
# ℹ 104 more variables: dot_id_reporting_airline <dbl>,
#   iata_code_reporting_airline <chr>, tail_number <chr>,
#   flight_number_reporting_airline <dbl>, origin_airport_id <dbl>,
#   origin_airport_seq_id <dbl>, origin_city_market_id <dbl>, origin <chr>,
#   origin_city_name <chr>, origin_state <chr>, origin_state_fips <dbl>,
#   origin_state_name <chr>, origin_wac <dbl>, dest_airport_id <dbl>, …

# A tibble: 59,416 × 111
# Groups:   reporting_airline, time_of_day [13]
    year quarter month day_of_month day_of_week flight_date reporting_airline
   <dbl>   <dbl> <dbl>        <dbl>       <dbl> <date>      <chr>            
 1  2023       1     1            9           1 2023-01-09  9E               
 2  2023       1     1           10           2 2023-01-10  9E               
 3  2023       1     1           11           3 2023-01-11  9E               
 4  2023       1     1           12           4 2023-01-12  9E               
 5  2023       1     1           13           5 2023-01-13  9E               
 6  2023       1     1           14           6 2023-01-14  9E               
 7  2023       1     1           15           7 2023-01-15  9E               
 8  2023       1     1           16           1 2023-01-16  9E               
 9  2023       1     1           17           2 2023-01-17  9E               
10  2023       1     1           18           3 2023-01-18  9E               
# ℹ 59,406 more rows
# ℹ 104 more variables: dot_id_reporting_airline <dbl>,
#   iata_code_reporting_airline <chr>, tail_number <chr>,
#   flight_number_reporting_airline <dbl>, origin_airport_id <dbl>,
#   origin_airport_seq_id <dbl>, origin_city_market_id <dbl>, origin <chr>,
#   origin_city_name <chr>, origin_state <chr>, origin_state_fips <dbl>,
#   origin_state_name <chr>, origin_wac <dbl>, dest_airport_id <dbl>, …
…
