Joining RDU Flights Data with Other Datasets
…
flights_rdu_joined_airline <- flights_rdu |>
  left_join(
    airline_codes, 
    by = join_by(reporting_airline == code)
  ) |>
  relocate(airline_name, .after = reporting_airline)

flights_rdu_joined_airline

# A tibble: 368 × 7
   flight_date dest  reporting_airline airline_name  destination_state dep_delay
   <date>      <chr> <chr>             <chr>         <chr>                 <dbl>
 1 2023-11-01  CLT   AA                American Air… NC                       58
 2 2023-11-01  CLT   AA                American Air… NC                       20
 3 2023-11-01  LAX   DL                Delta Air Li… CA                       16
 4 2023-11-01  CLT   AA                American Air… NC                        0
 5 2023-11-01  CLT   AA                American Air… NC                       -1
 6 2023-11-01  CLT   AA                American Air… NC                       -1
 7 2023-11-01  LAX   AA                American Air… CA                       -2
 8 2023-11-01  SFO   UA                United Air L… CA                       -2
 9 2023-11-01  CLT   AA                American Air… NC                       -4
10 2023-11-01  CLT   AA                American Air… NC                       -5
# ℹ 358 more rows
# ℹ 1 more variable: arr_delay <dbl>
…
Anti-join graphic demonstration

unused_airlines <- airline_codes |>
  anti_join(
    flights_rdu,
    by = join_by(code == reporting_airline)
  )

unused_airlines

# A tibble: 30 × 2
   code  airline_name                      
   <chr> <chr>                             
 1 9E    Endeavor Air Inc.                 
 2 AS    Alaska Airlines Inc.              
 3 B6    JetBlue Airways                   
 4 CO    Continental Air Lines Inc.        
 5 DH    Independence Air                  
 6 EA    Eastern Air Lines Inc.            
 7 EV    ExpressJet Airlines LLC d/b/a aha!
 8 F9    Frontier Airlines Inc.            
 9 FL    AirTran Airways Corporation       
10 G4    Allegiant Air                     
# ℹ 20 more rows
…
Right join graphic demonstration

After performing the right_join, the resulting dataset changes from 368 rows and 6 columns to 355 rows and 12 columns. The increase in columns comes from the additional weather-related variables—such as temperature, humidity, wind speed, and precipitation—added from the weather_data table. The decrease in rows occurs because the flight date 2023-11-02 in flights_rdu did not have matching weather records, and since a right_join only keeps rows where the key exists in the right-hand table (weather_data), those unmatched flight rows are dropped.

flights_rdu_joined_weather <- flights_rdu |>
  right_join(
    weather_data, 
    by = join_by(flight_date == time)
  ) 

# A tibble: 355 × 12
   flight_date dest  reporting_airline destination_state dep_delay arr_delay
   <date>      <chr> <chr>             <chr>                 <dbl>     <dbl>
 1 2023-11-01  CLT   AA                NC                       58        50
 2 2023-11-01  CLT   AA                NC                       20         8
 3 2023-11-01  LAX   DL                CA                       16        -6
 4 2023-11-01  CLT   AA                NC                        0        -3
 5 2023-11-01  CLT   AA                NC                       -1        -2
 6 2023-11-01  CLT   AA                NC                       -1       -16
 7 2023-11-01  LAX   AA                CA                       -2         1
 8 2023-11-01  SFO   UA                CA                       -2       -21
 9 2023-11-01  CLT   AA                NC                       -4       -10
10 2023-11-01  CLT   AA                NC                       -5        -3
# ℹ 345 more rows
# ℹ 6 more variables: temperature <dbl>, dew_point <dbl>, humidity <dbl>,
#   wind_speed <dbl>, pressure <dbl>, precipitation <dbl>
…
